D4D_JustPoli_FB
…
Data prep

Im working with some basic text files that I have already pulled down from the database. Additional steps taken to merge pages and comment data are mentioned at the end of the document.

Here we load the data file containing the California comments with respective page information. The primary focus is on the name which is used to identify the page and ideally the candidate the comments are related too.

Setup

Read in data, count the top 4 pages, and build custom stop words. Many of comments contain things like the candidates name or their title (congressman/woman). We will add these to a custom list of stop words that we will filter out after we tokenize the comments. We do this by using the page name as a list of stop words which should remove most of the names and titles.

#look at pages with most comments
comments.summary

## # A tibble: 82 x 2
##                           name     n
##                          <chr> <int>
##  1     Congressman Adam Schiff 83213
##  2   Congresswoman Barbara Lee 62322
##  3   Congressman Eric Swalwell 60865
##  4     Congressman Mark Takano 60723
##  5 Congresswoman Jackie Speier 47338
##  6        Congressman Ami Bera 37060
##  7   Congressmember Karen Bass 28325
##  8  Congressman John Garamendi 28247
##  9   Congressman Raul Ruiz, MD 24667
## 10  La Jornada Baja California 19580
## # ... with 72 more rows
…
#remove stop words
com_words <- comments %>%
  unnest_tokens(word, message) %>%
  anti_join(stop_words, by= "word")

#filter out common names and titles
com_words <- anti_join(com_words, mystopwords, by = "word")

#filter by top 4 pages
com_words <- com_words %>%   filter(name %in% top_4_pages$name)

#show top words
com_words %>% count(word, sort=TRUE)

## # A tibble: 100,142 x 2
##          word     n
##         <chr> <int>
##  1     people 30119
##  2      trump 15357
##  3       time 12493
##  4  president 12025
##  5    country 10718
##  6 government  8693
##  7    support  8693
##  8   congress  8658
##  9       vote  8614
## 10      obama  8186
## # ... with 100,132 more rows
…
Word and Document Freq (TF_IDF)

Here we calculate the term frequency and inverse frequency to measure how important a word is to a page. The TF_IDF tries to find sweet spot between words that are used often (high TF) versus words that not commonly found in other pages (high TF/rare).

#looking at tf_idf
com_words_tfidf <- com_words %>%  count(name, word, sort = TRUE) %>%
  ungroup() %>%  bind_tf_idf(word,name,n)

com_words_tfidf %>%arrange(desc(tf_idf))

## # A tibble: 176,889 x 6
##                         name       word     n           tf       idf
##                        <chr>      <chr> <int>        <dbl>     <dbl>
##  1 Congressman Eric Swalwell     dublin   277 0.0004319607 1.3862944
##  2 Congressman Eric Swalwell pleasanton   216 0.0003368358 1.3862944
##  3   Congressman Adam Schiff   armenian  1458 0.0015259394 0.2876821
##  4 Congressman Eric Swalwell    hayward   369 0.0005754278 0.6931472
##  5 Congressman Eric Swalwell  swallwell   183 0.0002853748 1.3862944
##  6 Congressman Eric Swalwell  livermore   344 0.0005364422 0.6931472
##  7 Congresswoman Barbara Lee now.single   138 0.0002547733 1.3862944
##  8   Congressman Mark Takano  riverside   448 0.0009779097 0.2876821
##  9   Congressman Adam Schiff      shiff   185 0.0001936206 1.3862944
## 10   Congressman Adam Schiff  armenians   795 0.0008320451 0.2876821
## # ... with 176,879 more rows, and 1 more variables: tf_idf <dbl>
…
